[ {
  "TS_Field_On_Underwriting__c" : "Box_Loan_Agreements_TS__c",
  "Folder_Id_Field_on_Underwriting__c" : "boxId_Loan_Agreements__c",
  "Ignore__c" : false,
  "Folder_Name__c" : "Loan Agreements",
  "Name__c" : "Loan AgreementA",
  "Name" : "Loan AgreementA",
  "attributes" : {
    "type" : "SF_Category_Map__c"
  }
}, {
  "TS_Field_On_Underwriting__c" : "Box_Final_Designs_TS__c",
  "Folder_Id_Field_on_Underwriting__c" : "boxId_Final_Designs__c",
  "Ignore__c" : false,
  "Folder_Name__c" : "Final Designs",
  "Name__c" : "Final Design",
  "Name" : "Final Design",
  "attributes" : {
    "type" : "SF_Category_Map__c"
  }
}, {
  "TS_Field_On_Underwriting__c" : "Box_Payment_Election_Form_TS__c",
  "Folder_Id_Field_on_Underwriting__c" : "boxId_Payment_Election_Form__c",
  "Ignore__c" : false,
  "Folder_Name__c" : "Payment Election Form",
  "Name__c" : "Voided Check or ACH",
  "Name" : "Voided Check or ACH",
  "attributes" : {
    "type" : "SF_Category_Map__c"
  }
}, {
  "TS_Field_On_Underwriting__c" : "Box_Installation_Photos_TS__c",
  "Folder_Id_Field_on_Underwriting__c" : "boxId_Installation_Photos__c",
  "Ignore__c" : false,
  "Folder_Name__c" : "Installation Photos",
  "Name__c" : "Photos",
  "Name" : "Photos",
  "attributes" : {
    "type" : "SF_Category_Map__c"
  }
}, {
  "TS_Field_On_Underwriting__c" : "Box_Unknown_TS__c",
  "Folder_Id_Field_on_Underwriting__c" : "boxId_Unknown__c",
  "Ignore__c" : false,
  "Folder_Name__c" : "Unknown",
  "Name__c" : "Unknown",
  "Name" : "Unknown",
  "attributes" : {
    "type" : "SF_Category_Map__c"
  }
}, {
  "TS_Field_On_Underwriting__c" : "Box_Utility_Bills_TS__c",
  "Folder_Id_Field_on_Underwriting__c" : "boxId_Utility_Bills__c",
  "Ignore__c" : false,
  "Folder_Name__c" : "Utility Bills",
  "Name__c" : "Utility Bill(s)",
  "Name" : "Utility Bill(s)",
  "attributes" : {
    "type" : "SF_Category_Map__c"
  }
}, {
  "TS_Field_On_Underwriting__c" : "Box_Communications_TS__c",
  "Folder_Id_Field_on_Underwriting__c" : "boxId_Communications__c",
  "Ignore__c" : false,
  "Folder_Name__c" : "Communications",
  "Name__c" : "Welcome Call",
  "Name" : "Welcome Call",
  "attributes" : {
    "type" : "SF_Category_Map__c"
  }
}, {
  "TS_Field_On_Underwriting__c" : "Box_Approval_Letters_TS__c",
  "Folder_Id_Field_on_Underwriting__c" : "boxId_Approval_Letters__c",
  "Ignore__c" : false,
  "Folder_Name__c" : "Approval Letters",
  "Name__c" : "PTO Approval letter",
  "Name" : "PTO Approval letter",
  "attributes" : {
    "type" : "SF_Category_Map__c"
  }
}, {
  "TS_Field_On_Underwriting__c" : "Box_Install_Contracts_TS__c",
  "Folder_Id_Field_on_Underwriting__c" : "boxId_Install_Contracts__c",
  "Ignore__c" : false,
  "Folder_Name__c" : "Install Contracts",
  "Name__c" : "Home Improvement Contract",
  "Name" : "Home Improvement Contract",
  "attributes" : {
    "type" : "SF_Category_Map__c"
  }
}, {
  "TS_Field_On_Underwriting__c" : "Box_Government_IDs_TS__c",
  "Folder_Id_Field_on_Underwriting__c" : "boxId_Government_IDs__c",
  "Ignore__c" : false,
  "Folder_Name__c" : "Government IDs",
  "Name__c" : "Driver's License",
  "Name" : "Driver's License",
  "attributes" : {
    "type" : "SF_Category_Map__c"
  }
} ]
